<?xml version="1.0" encoding="utf-8"?>
<!-- Generator: Adobe Illustrator 25.0.1, SVG Export Plug-In . SVG Version: 6.00 Build 0)  -->
<svg version="1.1" xmlns="http://www.w3.org/2000/svg" xmlns:xlink="http://www.w3.org/1999/xlink" x="0px" y="0px"
	 viewBox="0 0 170.5 177.9" style="enable-background:new 0 0 170.5 177.9;" xml:space="preserve">
<style type="text/css">
	.st0{fill:#ED1A3B;}
	.st1{fill:#FFFFFF;}
	.st2{fill:#EB262A;}
</style>
<g id="red_text">
	<g>
		<path class="st0" d="M76.6,20.6c-1.2-2.5-3.2-4-5.5-4.2l1.6-0.8c0.9-0.4,1.6-1.1,1.8-2c0.3-0.9,0.2-1.8-0.3-2.8
			c-0.6-1.3-1.8-2-3.1-2c-0.1,0-0.1,0-0.2,0c-1.3-2.5-3.4-3.9-5.8-3.9c-1.1,0-2.2,0.3-3.3,0.8c-1.2,0.6-2.2,1.2-3,1.6
			c-0.7,0.4-1.3,0.8-2.1,1.1c-0.1,0-0.1,0.1-0.2,0.1c-0.7-0.9-1.7-1.4-2.8-1.4c-0.6,0-1.3,0.2-2,0.5C50.5,8.3,50,9.3,49.7,10
			c-0.2,0.7-0.3,1.7,0.4,3c1,2,2.7,3.2,4.8,3.3l-1.7,0.8c-0.4,0.2-0.7,0.4-1,0.7c-0.3-0.1-0.6-0.1-0.9-0.1c-0.8,0-1.5,0.3-2.2,0.8
			c-0.9-0.7-1.7-0.9-2.4-0.9c-0.6,0-1.6,0.2-2.6,1c-1.8,1.5-1.9,3.8-0.4,5.6l0,0c-1.9,0.3-3.7,1.2-5.3,2.5c-1.3,1.1-2.4,2.6-3.1,4.2
			c-1.1,0.3-2.1,0.9-3.2,1.7L21.5,42c-0.8,0.7-1.3,1.5-1.3,2.4c0,0.2,0,0.4,0,0.6c-1.3-0.8-2.6-1.3-3.9-1.3c-2.1,0-3.9,1.1-5.3,3
			c-0.8,1.1-1.4,2-1.9,2.9c-0.4,0.7-0.8,1.3-1.3,2c0,0.1-0.1,0.1-0.1,0.2c-0.5-0.2-1-0.3-1.5-0.3c-0.7,0-2,0.2-3.2,1.8
			c-1.4,2-1,4.2,1,5.6c1.1,0.8,2.3,1.2,3.5,1.2c0.8,0,1.6-0.2,2.3-0.5l-1.1,1.5c-0.4,0.5-0.6,1.1-0.7,1.6c-0.2,0.2-0.4,0.5-0.5,0.8
			L1.3,76c-0.9,1.9-0.3,3.9,1.6,4.8c0.6,0.3,1.2,0.4,1.7,0.4c1.3,0,2.4-0.7,3-1.9C8,79.2,8.4,79.1,8.8,79c0.6,0.8,1.3,1.5,2.3,1.9
			c0.8,0.4,1.6,0.6,2.4,0.6c0.5,0,1-0.1,1.4-0.2c0.1,1.3,0.9,2.4,2.3,3.1c0.6,0.3,1.2,0.5,1.8,0.5c0.8,0,1.6-0.3,2.4-0.8l6.7-4.9
			c0.6-0.4,1.3-1,1.7-1.9c0.5-0.9,0.5-2,0.1-2.9c-0.3-0.9-1-1.6-1.9-2c-0.3-0.1-0.6-0.3-0.9-0.3c0.1,0,0.3,0,0.3,0
			c2.3,0,4.5-1.3,6.2-3.7c4.1-5.7,1.6-12.1-2.8-15.2c-1.5-1-3-1.6-4.5-1.6c-0.8,0-1.6,0.2-2.3,0.4l1-1.4c0.6-0.9,0.8-1.8,0.7-2.7
			c0,0,0,0,0,0c0.1,0.6,0.4,1.3,0.9,1.8c0.7,0.8,1.7,1.3,2.8,1.4c0.3,0,0.6,0.1,0.9,0.1c1.6,0,3.1-0.6,4.4-1.7
			c1.1-0.9,1.8-2,2.1-3.2c1.6-0.2,3.2-0.9,4.7-2.2c1-0.8,1.7-1.7,2.1-2.5c0.1,0.2,0.3,0.4,0.4,0.6c0.7,0.8,1.8,1.3,3,1.3
			c0.9,0,1.8-0.3,2.5-0.9c0.6-0.5,1.1-1.4,1.3-2.3l1.2-6l4.5,5.3c1.1,1.3,2.3,1.6,3.1,1.6c0.6,0,1.6-0.2,2.6-1
			c1.1-0.9,1.4-1.9,1.4-2.6c0.1-0.7-0.1-1.8-1.1-3L53.9,24c0,0,0,0,0,0c0.3,0.1,0.5,0.1,0.8,0.1c0.6,0,1.1-0.1,1.7-0.4l0.6-0.3
			l4.5,9.1c1.3,2.6,3.4,4,6.1,4c0,0,0,0,0,0c1.3,0,2.7-0.4,4.2-1.1c3.8-1.9,5.2-4.9,5.7-7C78.1,25.8,77.8,23,76.6,20.6z M15.8,66.8
			c-0.7,0-1.3,0.1-1.9,0.3l0.2-0.4c0.2-0.4,0.3-0.8,0.4-1.1c0.1-0.1,0.2-0.2,0.3-0.3l0.4-0.6l4.2,3C18.1,67.1,16.9,66.8,15.8,66.8z
			 M27.8,61.2C27.8,61.2,27.8,61.2,27.8,61.2c0.1,0,0.1,0.1,0.1,0.2c0.3,0.9,0.2,1.6-0.2,2.3l-1.4-1C26.9,62.3,27.4,61.8,27.8,61.2z
			 M26.3,71.8c-1,0-1.8,0.5-2.5,0.9l-0.1,0.1c-0.3-1.2-0.9-2.4-1.8-3.3l1.3,0.9C24.3,71.2,25.3,71.6,26.3,71.8z M69.9,26.6
			c-0.2,0.9-0.6,1.5-1.3,1.9l-0.8-1.6c0.7,0,1.3-0.2,2-0.5c0,0,0.1,0,0.1,0C70,26.4,70,26.5,69.9,26.6z"/>
		<g>
			<path class="st1" d="M29.8,54.6c-2.9-2-5.7-1.5-7.6,1.2c-1.2,1.7-1.4,3.7,0.5,5c1.3,0.9,2.7,0.5,3.5-0.6c0.7-1,0.6-2.2-0.3-3
				c0.4-0.1,1,0.2,1.4,0.5c2,1.4,3.6,4.7,1.8,7.3c-0.6,0.9-1.4,1.2-2.3,0.5l-9.8-6.9l6.5-9.2c0.6-0.8,0.4-1.7-0.4-2.3l-0.1,0
				c-0.8-0.6-1.7-0.4-2.3,0.4l-0.3,0.5c-0.4-0.3-0.9-0.8-1.2-1c-2.5-1.8-5.1-1.4-6.8,1.1c-1.4,2-2.1,3.4-3.1,4.9
				c-0.8,1.2-1.4,1.4-2.1,1c-1.1-0.7-2-0.3-2.6,0.7c-0.8,1.1-0.5,2.1,0.6,2.9c2.2,1.5,4.5,0.9,6.1-1.5c1.3-1.8,1.9-3.2,3.2-5
				c0.7-1.1,1.7-1.5,2.8-0.7c0.2,0.2,0.6,0.5,0.9,0.8l-7.9,11.2c-0.3,0.5-0.4,1-0.3,1.4c-0.3,0.2-0.6,0.4-0.7,0.8L3,76.9
				c-0.5,0.9-0.2,1.8,0.7,2.2l0.1,0c0.9,0.5,1.8,0.2,2.2-0.7l0.3-0.7c0.6-0.2,2-0.6,3.6-0.9c0.3,1,1,1.9,2.1,2.4
				c1.6,0.8,3.1,0.4,3.9-1.2c0.8-1.7,0-2.9-1.5-3.7c-0.2-0.1-0.5-0.2-0.8-0.3c0.7-1.3,1.9-1.7,3.3-1c2.4,1.2,2.3,3.1,1.4,4.8
				c-0.7,1.3-0.9,1.5-1.2,2.1c-0.6,1.1-0.1,2.2,1,2.7c0.9,0.4,1.5,0.3,2.2-0.2l6.7-4.9c0.5-0.4,0.9-0.7,1.1-1.2
				c0.5-0.9,0-1.9-0.9-2.3c-0.9-0.4-1.4-0.2-2.2,0.4l-1.1,0.7c-1.5,1.1-2.3,2-2.3,2L21.5,77c1.3-3.8-0.3-6.2-2.9-7.5
				c-3.2-1.6-6.4-0.4-8.1,3c-0.2,0.4-0.3,0.7-0.4,1c-0.5,0-1.1,0-1.6,0.1l3.9-7.7c0.2-0.4,0.2-0.8,0.2-1.2c0.2-0.1,0.4-0.3,0.6-0.6
				l1.5-2.1l9.8,6.9c3,2.1,5.8,0.9,7.7-1.8C35.7,62,33.1,56.9,29.8,54.6z"/>
			<path class="st1" d="M51.2,23.8l1.3-1.1c0.8-0.7,0.8-1.5,0.2-2.3l0,0c-0.7-0.8-1.5-0.8-2.3-0.2L49,21.2l-0.6-0.7
				c-0.9-1-1.9-1.2-2.9-0.3l0,0c-1,0.9-1,1.9-0.1,2.9l2.5,3l0,0.2c-2.8-0.5-5.6,0-8,2c-1.4,1.2-2.4,2.7-2.9,4.5
				c-1.1,0-2.2,0.5-3.4,1.5l-10.9,9.2c-0.8,0.7-0.9,1.5-0.2,2.3l0,0c0.7,0.8,1.5,0.9,2.3,0.2l5.5-4.7c1,1.3,1.9,2.8,0.8,3.7
				c-0.5,0.5-1.1,0.3-1.6,0.3c-0.4,0-0.8-0.1-1.2,0.3c-0.7,0.6-1.1,1.7-0.3,2.7c0.4,0.4,0.9,0.7,1.6,0.7c1.3,0.2,2.5-0.1,3.9-1.3
				c1.3-1.1,1.7-2.4,1.7-3.7c1.6,0.3,3.3-0.2,5.1-1.7c2-1.7,2.4-3.5,2-5.1c0.2-0.1,0.4-0.2,0.6-0.2c0.7-0.2,1.6-0.3,2.7,0l-0.4,1.8
				c-0.1,0.7,0,1.4,0.3,1.8c0.7,0.8,2.1,0.9,2.8,0.3c0.3-0.3,0.6-0.7,0.7-1.2l2-9.9l7,8.3c0.9,1,1.9,1.2,2.9,0.3l0,0
				c1-0.9,1-1.9,0.1-2.9L51.2,23.8z M37.7,39.9c-1.4,1.2-3.1,0.4-4.4-0.9l2.1-1.8c1-0.8,1.9-0.5,2.5,0.2
				C38.5,38.1,38.6,39.1,37.7,39.9z M46.3,33.6c-2.1-0.5-4.1-0.4-5.6,0.9c0-1.5,0.7-2.6,1.8-3.6c1-0.9,2.3-1.5,4.6-1.1L46.3,33.6z"
				/>
			<path class="st1" d="M74.9,21.5c-1.6-3.2-4.3-4-7.3-2.5c-1.8,0.9-3,2.6-2,4.6c0.7,1.5,2.1,1.7,3.4,1.1c1.1-0.5,1.5-1.7,1.2-2.8
				c0.5,0.1,0.8,0.6,1.1,1.1c1.1,2.2,1,5.9-1.9,7.3c-1,0.5-1.8,0.4-2.3-0.7l-5.3-10.8l10.1-5c0.9-0.4,1.2-1.3,0.7-2.2l0-0.1
				c-0.5-0.9-1.3-1.2-2.2-0.7l-0.5,0.2c-0.2-0.5-0.4-1.1-0.6-1.5c-1.4-2.7-3.8-3.7-6.5-2.3c-2.2,1.1-3.5,2-5.1,2.8
				c-1.3,0.6-1.9,0.5-2.3-0.1c-0.6-1.1-1.6-1.2-2.6-0.7c-1.2,0.6-1.5,1.6-0.9,2.8c1.2,2.4,3.5,2.9,6.1,1.6c2-1,3.2-1.9,5.2-2.8
				c1.2-0.6,2.2-0.5,2.8,0.8c0.1,0.2,0.3,0.7,0.4,1.1l-12.3,6.1c-0.9,0.5-1.2,1.3-0.8,2.2l0,0.1c0.5,0.9,1.3,1.2,2.2,0.8l2.3-1.2
				l5.3,10.8c1.7,3.3,4.7,3.5,7.7,2.1C76.5,30.9,76.7,25.1,74.9,21.5z"/>
		</g>
	</g>
	<g>
		<g>
			<path class="st0" d="M105.4,18.3C105.4,18.3,105.4,18.3,105.4,18.3C105.4,18.3,105.4,18.3,105.4,18.3c-0.2-0.7-0.4-1.3-0.8-1.9
				l-4.2-7.3c-0.6-1-1.8-1.3-2.8-0.7l-0.1,0.1c-0.4,0.2-0.7,0.5-0.8,0.9c-0.7-0.7-1.9-0.9-2.8-0.4l-0.1,0c-0.5,0.3-0.8,0.7-1,1.2
				c-0.3-0.3-0.6-0.5-1-0.6C91.2,9.6,90.6,9.7,90,10l-0.1,0c-0.5,0.3-0.8,0.7-1,1.1l-2.8-4.8c-0.6-1.1-2.1-1.5-3.2-0.8l-0.1,0
				C82.4,5.9,82,6.4,81.8,7c-0.2,0.6-0.1,1.2,0.2,1.8l6.2,10.8l-4-1.2c-1.3-0.4-2.4,0-3,1c-0.3,0.4-0.3,1-0.2,1.6
				c0.2,0.6,0.5,1,1,1.3l9.5,5c1.4,1.1,3,1.7,4.7,1.7c1.5,0,3.1-0.4,4.6-1.3C104.5,25.4,106.2,22,105.4,18.3z"/>
			<path class="st0" d="M81.7,4.2c0.1,0.2,0.2,0.2,0.4,0.2c0.1,0,0.2,0,0.2-0.1c0.2-0.1,0.3-0.4,0.2-0.7l-0.9-1.5
				C81.5,2,81.2,1.9,81,2.1c-0.2,0.1-0.3,0.4-0.2,0.7L81.7,4.2z"/>
			<path class="st0" d="M87.8,6c0.1,0,0.2,0,0.2-0.1l1.5-0.9c0.2-0.1,0.3-0.4,0.2-0.7c-0.1-0.2-0.4-0.3-0.7-0.2l-1.5,0.9
				c-0.2,0.1-0.3,0.4-0.2,0.7C87.5,5.9,87.7,6,87.8,6z"/>
			<path class="st0" d="M81,9.5c-0.1-0.2-0.4-0.3-0.7-0.2l-1.5,0.9c-0.2,0.1-0.3,0.4-0.2,0.7c0.1,0.2,0.2,0.2,0.4,0.2
				c0.1,0,0.2,0,0.2-0.1l1.5-0.9C81,10,81.1,9.7,81,9.5z"/>
			<path class="st0" d="M80.1,7c0.2,0,0.4-0.1,0.5-0.4c0.1-0.3-0.1-0.5-0.3-0.6l-1.7-0.5C78.3,5.6,78.1,5.7,78,6
				c-0.1,0.3,0.1,0.5,0.3,0.6L80,7C80,7,80.1,7,80.1,7z"/>
			<path class="st0" d="M85.2,4c0,0,0.1,0,0.1,0c0.2,0,0.4-0.1,0.5-0.4L86.2,2c0.1-0.3-0.1-0.5-0.3-0.6c-0.3-0.1-0.5,0.1-0.6,0.3
				l-0.5,1.7C84.8,3.7,84.9,3.9,85.2,4z"/>
		</g>
		<g>
			<path class="st1" d="M100.4,26.7c-3,1.7-6,1.6-8.3-0.3c0,0-0.1,0-0.1-0.1l-9.5-5c-0.2-0.1-0.4-0.4-0.5-0.7
				c-0.1-0.3-0.1-0.6,0.1-0.8c0.1-0.2,0.5-0.9,1.9-0.6l5.2,1.6c0.2,0.1,0.4,0,0.5-0.2c0.1-0.2,0.1-0.4,0-0.5L82.9,8.3
				c-0.2-0.3-0.2-0.7-0.1-1c0.1-0.4,0.3-0.7,0.7-0.8l0.1,0C84.2,6,85,6.2,85.4,6.8l3.7,6.4c0,0,0,0,0,0l1.1,1.9
				c0,0.1,0.1,0.1,0.1,0.1c0,0,0,0,0,0c0,0,0.1,0.1,0.1,0.1c0,0,0,0,0,0c0,0,0.1,0,0.1,0c0,0,0,0,0,0c0,0,0,0,0,0
				c0.1,0,0.1,0,0.2-0.1c0.2-0.1,0.3-0.3,0.2-0.5c0-0.1,0-0.1-0.1-0.2l-1.1-1.9c-0.4-0.7-0.1-1.5,0.5-1.9l0.1,0
				c0.3-0.2,0.7-0.2,1.1-0.1c0.4,0.1,0.7,0.3,0.8,0.6l0.6,1c0,0,0,0,0,0l1.2,2.1c0,0.1,0.1,0.1,0.1,0.1c0,0,0,0,0,0
				c0,0,0.1,0.1,0.1,0.1c0,0,0,0,0,0c0,0,0.1,0,0.1,0c0,0,0,0,0,0c0,0,0,0,0,0c0.1,0,0.1,0,0.2-0.1c0.2-0.1,0.3-0.3,0.2-0.5
				c0-0.1,0-0.1-0.1-0.2l-1.2-2.1c-0.4-0.7-0.1-1.5,0.5-1.9l0.1,0c0.7-0.4,1.5-0.2,1.9,0.5l0.5,0.9c0,0,0,0,0,0l1.2,2.1
				c0.1,0.2,0.4,0.3,0.7,0.2c0.2-0.1,0.3-0.3,0.2-0.5c0-0.1,0-0.1-0.1-0.2l-1.2-2.1c-0.1-0.2-0.2-0.5-0.1-0.8
				c0.1-0.3,0.3-0.5,0.5-0.7l0.1-0.1c0.5-0.3,1.2-0.1,1.5,0.4l4.2,7.3c0.3,0.5,0.5,1,0.7,1.6C105.2,21.8,103.7,24.8,100.4,26.7z"/>
		</g>
	</g>
</g>
<g id="Layer_9">
	<g>
		<circle class="st2" cx="97.3" cy="105" r="68.3"/>
		<path class="st1" d="M97.3,175.8c-39.1,0-70.9-31.8-70.9-70.9s31.8-70.9,70.9-70.9s70.9,31.8,70.9,70.9S136.4,175.8,97.3,175.8z
			 M97.3,39.3c-36.2,0-65.7,29.5-65.7,65.7s29.5,65.7,65.7,65.7S163,141.2,163,105S133.5,39.3,97.3,39.3z"/>
	</g>
</g>
</svg>
